<svg width="18" height="18" viewBox="0 0 18 18" fill="none" xmlns="http://www.w3.org/2000/svg">
<path d="M6 6L12 12M6 12L12 6" stroke="#F1414A" stroke-width="1.5" stroke-linecap="round"/>
<circle cx="9" cy="9" r="8.5" stroke="#F1414A"/>
</svg>
